module juandelvalle.com/dt-api

go 1.13

require (
	github.com/dgrijalva/jwt-go v3.2.0+incompatible
	github.com/labstack/echo v3.3.10+incompatible
	github.com/labstack/echo/v4 v4.1.17
	go.mongodb.org/mongo-driver v1.4.4
	golang.org/x/crypto v0.0.0-20200820211705-5c72a883971a
	google.golang.org/grpc v1.34.0
)
